{
  "images" : [
    {
      "idiom" : "universal",
      "filename" : "59c1754b8c984c000142506b_user-29.png",
      "scale" : "1x"
    },
    {
      "idiom" : "universal",
      "filename" : "59c1754b8c984c000142506b_user-29@2x.png",
      "scale" : "2x"
    },
    {
      "idiom" : "universal",
      "filename" : "59c1754b8c984c000142506b_user-29@3x.png",
      "scale" : "3x"
    }
  ],
  "info" : {
    "version" : 1,
    "author" : "xcode"
  }
}